BCCM Results Over Full Domain
…
Note the (). The bccm_primaryproduction_full() function assigns the output to our designated variable simply named pp.

If you have not already previously downloaded the relevant results it will first download them into your cache folder (i.e. it will get just the specified model results, rather than all of them as in the bccm_all_variables_full() described above). If you have previously downloaded the results the function will simply load them in from your cached folder.

View the data help for more information (e.g. ?bccm_primaryproduction_full); similar help functions all point to a common help file for all bccm_full objects.

So, what does the object look like?

pp
# Simple feature collection with 161025 features and 324 fields
# Geometry type: POLYGON
# Dimension:     XY
# Bounding box:  xmin: 108882.9 ymin: -165260 xmax: 1160883 ymax: 1192740
# Projected CRS: NAD83 / BC Albers
# # A tibble: 161,025 × 325
#    `1993_1` `1993_2` `1993_3` `1993_4` `1993_5` `1993_6` `1993_7` `1993_8`
#  *    <dbl>    <dbl>    <dbl>    <dbl>    <dbl>    <dbl>    <dbl>    <dbl>
#  1   0.0840    0.335    0.726    0.796    1.05     0.827    0.845    0.792
#  2   0.0827    0.328    0.747    0.831    1.05     0.834    0.852    0.800
#  3   0.0866    0.344    0.717    0.801    1.07     0.860    0.872    0.813
#  4   0.0855    0.337    0.753    0.861    1.07     0.858    0.867    0.813
#  5   0.0841    0.332    0.757    0.858    1.07     0.848    0.860    0.807
#  6   0.0903    0.349    0.747    0.862    1.09     0.870    0.881    0.823
#  7   0.0887    0.344    0.775    0.904    1.09     0.874    0.878    0.822
#  8   0.0870    0.339    0.773    0.900    1.09     0.867    0.873    0.816
#  9   0.0637    0.251    0.579    0.668    0.807    0.642    0.650    0.606
# 10   0.0691    0.266    0.570    0.649    0.821    0.651    0.658    0.616
# # ℹ 161,015 more rows
# # ℹ 317 more variables: `1993_9` <dbl>, `1993_10` <dbl>, `1993_11` <dbl>,
# #   `1993_12` <dbl>, `1994_1` <dbl>, `1994_2` <dbl>, `1994_3` <dbl>,
# #   `1994_4` <dbl>, `1994_5` <dbl>, `1994_6` <dbl>, `1994_7` <dbl>,
# #   `1994_8` <dbl>, `1994_9` <dbl>, `1994_10` <dbl>, `1994_11` <dbl>,
# #   `1994_12` <dbl>, `1995_1` <dbl>, `1995_2` <dbl>, `1995_3` <dbl>,
# #   `1995_4` <dbl>, `1995_5` <dbl>, `1995_6` <dbl>, `1995_7` <dbl>, …
…
We can easily load the model results and calculate the anomalies for a climatology (see ?calc_clim to obtain the climatology also):

bottom_oxygen <- bccm_bottom_oxygen_full()
anom <- calc_anom(bottom_oxygen,
                  clim_years = 1993:2010,
                  time_period_return = c("Apr", "Sep"),
                  years_return = c(2010, 2018))
anom
# Simple feature collection with 161025 features and 4 fields
# Geometry type: POLYGON
# Dimension:     XY
# Bounding box:  xmin: 108882.9 ymin: -165260 xmax: 1160883 ymax: 1192740
# Projected CRS: NAD83 / BC Albers
# # A tibble: 161,025 × 5
#    `2010_4` `2010_9` `2018_4` `2018_9`                                  geometry
#       <dbl>    <dbl>    <dbl>    <dbl>                             <POLYGON [m]>
#  1     21.3     8.75    -24.7    -23.3 ((630882.9 1192740, 632882.9 1192740, 63…
#  2     21.3     8.75    -24.7    -23.3 ((632882.9 1192740, 634882.9 1192740, 63…
#  3     21.3     8.70    -24.8    -23.2 ((628882.9 1190740, 630882.9 1190740, 63…
#  4     21.3     8.75    -24.7    -23.3 ((630882.9 1190740, 632882.9 1190740, 63…
#  5     21.3     8.75    -24.7    -23.3 ((632882.9 1190740, 634882.9 1190740, 63…
#  6     21.4     9.09    -25.2    -22.4 ((626882.9 1188740, 628882.9 1188740, 62…
#  7     21.4     8.83    -25.1    -22.8 ((628882.9 1188740, 630882.9 1188740, 63…
#  8     21.4     8.89    -24.9    -22.9 ((630882.9 1188740, 632882.9 1188740, 63…
#  9     21.3     8.75    -24.7    -23.3 ((632882.9 1188740, 634882.9 1188740, 63…
# 10     21.4     9.77    -25.8    -21.2 ((624882.9 1186740, 626882.9 1186740, 62…
# # ℹ 161,015 more rows
…
