Buoy Sea Surface Temperature Data
…
(built with code in data-raw/buoys/buoys-map.R), and also shown at https://github.com/IOS-OSD-DPG/Pacific_SST_Monitoring#eccc-buoy-data.

Some of the recent data are also plotted on that website, by Andrea Hilborn, Charles Hannah and Lu Guan, which is automatically updated roughly every week (so look there for a quick glance at recent conditions). For pacea we have, with Andrea, adapted some of that code to include the data and create plotting functions in our package.

The wrangling of data is taken care of within pacea, and includes using protocols to remove certain flagged data, dealing with timezones and pesky daylight savings time changes, and averaging over a day (the original raw data are even higher resolution). We are still refining this to remove outliers – this has to be somewhat manual.

The sst value are saved in a tibble, which also has class pacea_buoy

buoy_sst
#> # A tibble: 206,901 × 3
#>    date       stn_id   sst
#>    <date>     <fct>  <dbl>
#>  1 1988-08-05 C46004  12.8
#>  2 1988-08-06 C46004  12.7
#>  3 1988-08-07 C46004  12.5
#>  4 1988-08-08 C46004  12.5
#>  5 1988-08-09 C46004  12.6
#>  6 1988-08-10 C46004  12.6
#>  7 1988-08-11 C46004  12.7
#>  8 1988-08-12 C46004  12.7
#>  9 1988-08-13 C46004  12.8
#> 10 1988-08-14 C46004  12.9
#> # ℹ 206,891 more rows
…
