Fraser River Discharge Data
…
In pacea we include two Fraser River discharge data sets, both measured at Hope, British Columbia:

fraser_discharge_mean - monthly mean discharge data

fraser_discharge_peak - monthly peak discharge data

Both data sets are derived from measurements at the Hope station and provide monthly time series from 1912 onwards, downloaded from Environment and Climate Change Canada. The data are of class pacea_index and contain measurements in cubic meters per second (m³/s). See ?fraser_discharge_mean for further details.

Mean discharge data

The mean discharge values are the monthly averages:

fraser_discharge_mean
#> # A tibble: 1,360 × 3
#>     year month value
#>    <dbl> <dbl> <dbl>
#>  1  1912     3  485.
#>  2  1912     4 1154.
#>  3  1912     5 4989.
#>  4  1912     6 6128 
#>  5  1912     7 4781.
#>  6  1912     8 3961.
#>  7  1912     9 2162.
#>  8  1912    10 1531.
#>  9  1912    11 1065.
#> 10  1912    12  761.
#> # ℹ 1,350 more rows
…
This plot shows the long-term patterns in monthly mean discharge, revealing both seasonal cycles and inter-annual variability.

Peak discharge data

The peak discharge data are monthly peaks calculated from daily mean values:

fraser_discharge_peak
#> # A tibble: 1,360 × 3
#>     year month value
#>    <dbl> <dbl> <int>
#>  1  1912     3   578
#>  2  1912     4  2070
#>  3  1912     5  6850
#>  4  1912     6  7420
#>  5  1912     7  6340
#>  6  1912     8  4390
#>  7  1912     9  3000
#>  8  1912    10  2030
#>  9  1912    11  1270
#> 10  1912    12   864
#> # ℹ 1,350 more rows
…
Months with highest mean or highest peak discharge:

fraser_discharge_mean %>%
  arrange(desc(value))
#> # A tibble: 1,360 × 3
#>     year month  value
#>    <dbl> <dbl>  <dbl>
#>  1  1972     6 10752.
#>  2  1948     6 10737 
#>  3  1964     6 10219.
#>  4  1967     6  9962.
#>  5  1920     7  9601.
#>  6  1997     6  9582.
#>  7  2012     6  9400.
#>  8  1921     6  9317 
#>  9  2002     6  9303 
#> 10  2011     6  9166.
#> # ℹ 1,350 more rows

fraser_discharge_peak %>%
  arrange(desc(value))
#> # A tibble: 1,360 × 3
#>     year month value
#>    <dbl> <dbl> <int>
#>  1  1948     5 15200
#>  2  1948     6 14800
#>  3  1972     6 12900
#>  4  1950     6 12500
#>  5  2012     6 11700
#>  6  1964     6 11600
#>  7  1955     6 11300
#>  8  1997     6 11300
#>  9  1921     6 11100
#> 10  1955     7 11100
#> # ℹ 1,350 more rows

Months with lowest mean or lowest peak discharge:

fraser_discharge_mean %>%
  arrange(value)
#> # A tibble: 1,360 × 3
#>     year month value
#>    <dbl> <dbl> <dbl>
#>  1  1917     3  482.
#>  2  1912     3  485.
#>  3  1929     2  497.
#>  4  1919     3  497.
#>  5  1929     3  505.
#>  6  1913     1  516.
#>  7  1929     1  520.
#>  8  1937     2  528.
#>  9  2001     3  537.
#> 10  1928    12  540.
#> # ℹ 1,350 more rows

fraser_discharge_peak %>%
  arrange(value)
#> # A tibble: 1,360 × 3
#>     year month value
#>    <dbl> <dbl> <int>
#>  1  1917     3   538
#>  2  1929     1   555
#>  3  1929     2   555
#>  4  1917     2   558
#>  5  1937     2   566
#>  6  1929     3   575
#>  7  1912     3   578
#>  8  1927     3   592
#>  9  1919     3   612
#> 10  2023     3   624
#> # ℹ 1,350 more rows
…
# Calculate annual peaks
annual_peak <- fraser_discharge_peak %>%
  group_by(year) %>%
  summarise(
    annual_peak = max(value)) %>%
  ungroup()

annual_summary <- annual_mean_stats %>%
  left_join(annual_peak,
            by = "year")

annual_summary
#> # A tibble: 114 × 5
#>     year annual_mean annual_min annual_max annual_peak
#>    <dbl>       <dbl>      <dbl>      <dbl>       <int>
#>  1  1912       2702.       485.      6128         7420
#>  2  1913       2806.       516.      8282.       10300
#>  3  1914       2910.       787.      7144.        8550
#>  4  1915       2262.       585.      5021.        5800
#>  5  1916       2503.       543.      6582.        8720
#>  6  1917       2702.       482.      7880         8980
#>  7  1918       3046.       837       7971.        9770
#>  8  1919       2628.       497.      6930.        8520
#>  9  1920       3261.       648.      9601.       10800
#> 10  1921       3202.       824.      9317        11100
#> # ℹ 104 more rows
…
