Zooplankton anomalies in the Strait of Georgia
…
Andrew Edwards

Last rendered on 12 April, 2024

Zooplankton anomalies in the Strait of Georgia

library(pacea)
library(dplyr)

Pacea now includes anomalies of zooplankton biomass in the Strait of Georgia, BC, provided by Kelly Young (Institute of Ocean Sciences, DFO). These update the calculations presented by Perry et al. (2021) and in the annual State of the Pacific Ocean report (Young et al., 2023); see ?zooplankton for full details and latest citations. Here we explain what is included, and update the figures presented by Perry et al. (2021) for total biomass and 20 species groups.

The data are stored as a tibble in pacea, as simply:

zooplankton_sog
#> # A tibble: 28 × 28
#>     year number_samples volume_filtered total_biomass amphipods_gammarid
#>    <dbl>          <dbl>           <dbl>         <dbl>              <dbl>
#>  1  1996              4            335.        0.0890             0.0338
#>  2  1997             11            921.        0.0649             0.212 
#>  3  1998             22           1584.        0.275              0.184 
#>  4  1999              7            421.        0.229              0.0139
#>  5  2000              4            484.        0.142              0.212 
#>  6  2001              8            430.        0.0690            -0.0154
#>  7  2002              9            558.        0.0255            -0.0161
#>  8  2003              8            589.       -0.152              0.157 
#>  9  2004             27           1993.       -0.216             -0.0204
#> 10  2005              9            797.       -0.301             -0.303 
#> # ℹ 18 more rows
#> # ℹ 23 more variables: amphipods_hyperiid <dbl>, benthic_larvae <dbl>,
#> #   calanoid_copepods_large <dbl>, calanoid_copepods_medium <dbl>,
#> #   calanoid_copepods_small <dbl>, cephalopoda <dbl>, chaetognatha <dbl>,
#> #   cladocera <dbl>, ctenophora <dbl>, euphausiids <dbl>, fish <dbl>,
#> #   larvacea <dbl>, medusae <dbl>, mysids <dbl>, natantia <dbl>,
#> #   non_calanoid_copeopods <dbl>, ostracoda <dbl>, other <dbl>, …
…
