…
Selection: 
```

```{r bccm data head, eval=FALSE}
Simple feature collection with 33642 features and 324 fields
Geometry type: POLYGON
Dimension:     XY
Bounding box:  xmin: 164671.6 ymin: 163875 xmax: 1097612 ymax: 1103653
Projected CRS: NAD83 / BC Albers
# A tibble: 33,642 × 325
  `1993_1` `1993_2` `1993_3` `1993_4` ...                       geometry
     <dbl>    <dbl>    <dbl>    <dbl> ...                  <POLYGON [m]>
1     7.83     7.87     7.88     7.90 ... ((575612.5 1103653, 577612.5 ~
2     7.83     7.87     7.88     7.90 ... ((577612.5 1103653, 579612.5 ~
3     7.83     7.87     7.88     7.90 ... ((579612.5 1103653, 581612.5 ~
4     7.83     7.87     7.88     7.89 ... ((581612.5 1103653, 583612.5 ~
5     7.79     7.82     7.84     7.82 ... ((619612.5 1103653, 621612.5 ~
6     7.79     7.82     7.83     7.82 ... ((621612.5 1103653, 623612.5 ~
# i 33,636 more rows
# i 320 more variables: ...
```
…
## Extras -- climatology function

Output with each climatology time unit (e.g. week, month)
```{r calc_clim, eval=FALSE}
calc_clim(bccm_surface_temperature())
```

```{r calc_clim2, eval=FALSE}
Simple feature collection with 486960 features and 4 fields
Geometry type: POLYGON
Dimension:     XY
Bounding box:  xmin: 164671.6 ymin: 163875 xmax: 1097612 ymax: 1103653
Projected CRS: NAD83 / BC Albers
# A tibble: 486,960 x 5
  month clim_value clim_sd clim_n                  geometry
  <dbl>      <dbl>   <dbl>  <int>             <POLYGON [m]>
1     1       5.80   0.721     27 ((575612.5 1103653, 5776~
2     2       5.47   0.610     27 ((575612.5 1103653, 5776~
3     3       5.64   0.627     27 ((575612.5 1103653, 5776~
4     4       6.61   0.623     27 ((575612.5 1103653, 5776~
5     5       8.49   0.732     27 ((575612.5 1103653, 5776~
6     6      10.5    0.662     27 ((575612.5 1103653, 5776~
# i 486,954 more rows
# i Use `print(n = ...)` to see more rows
```
…
## Extras -- anomaly function

Specify year(s) and time period (e.g. week, month) to return - otherwise all.
```{r calc_anom, eval=FALSE}
(anom.dat <- calc_anom(bccm_surface_temperature(), time_period_return = "April", years_return = c(2010, 2015)))
```

```{r calc_anom2, eval=FALSE}
Simple feature collection with 40580 features and 2 fields
Geometry type: POLYGON
Dimension:     XY
Bounding box:  xmin: 164671.6 ymin: 163875 xmax: 1097612 ymax: 1103653
Projected CRS: NAD83 / BC Albers
# A tibble: 40,580 x 3
  `2010_4` `2015_4`                                                                       geometry
     <dbl>    <dbl>                                                                  <POLYGON [m]>
1    0.114     1.09 ((575612.5 1103653, 577612.5 1103653, 577612.5 1101653, 575612.5 1101653, 575~
2    0.124     1.08 ((577612.5 1103653, 579612.5 1103653, 579612.5 1101653, 577612.5 1101653, 577~
3    0.150     1.07 ((579612.5 1103653, 581612.5 1103653, 581612.5 1101653, 579612.5 1101653, 579~
4    0.204     1.08 ((581612.5 1103653, 583612.5 1103653, 583612.5 1101653, 581612.5 1101653, 581~
5    0.204     1.07 ((583612.5 1103653, 585612.5 1103653, 585612.5 1101653, 583612.5 1101653, 583~
6    0.244     1.08 ((585612.5 1103653, 587612.5 1103653, 587612.5 1101653, 585612.5 1101653, 585~
# i 40,574 more rows
# i Use `print(n = ...)` to see more rows
```
…
