…
## OISST -- monthly mean
The data are saved as a `sf` (simple feature) `tibble` object in `pacea`:

```{r oisstdata, eval=FALSE}
oisst_month
```

```{r oisstdata2, eval=FALSE}
Simple feature collection with 467125 features and 7 fields
Geometry type: POINT
Dimension:     XY
Bounding box:  xmin: -138.625 ymin: 46.625 xmax: -123.125 ymax: 54.625
Geodetic CRS:  WGS 84
# A tibble: 467,125 x 8
   year month   sst sst_sd sst_n start_date end_date
* <dbl> <dbl> <dbl>  <dbl> <int> <date>     <date>
1  1981     9  16.4  0.830    30 1981-09-01 1981-09-30
2  1981    10  14.3  0.838    31 1981-10-01 1981-10-31
3  1981    11  12.7  1.38     30 1981-11-01 1981-11-30
4  1981    12  10.2  0.549    31 1981-12-01 1981-12-31
5  1981     9  16.4  1.05     30 1981-09-01 1981-09-30
6  1981    10  14.2  0.697    31 1981-10-01 1981-10-31
# i 467,119 more rows
# i 1 more variable: geometry <POINT [B0]>
# i Use `print(n = ...)` to see more rows
```
…
